,loss,accuracy,auc,val_loss,val_accuracy,val_auc,Test accuracy,Subject,verbose,epochs,steps
0.0,0.1438269019126892,0.9555555582046508,0.9980247020721436,0.0482177510857582,1.0,1.0,1.0,1.0,1.0,200.0,3.0
1.0,0.0807791426777839,1.0,1.0,0.1058872193098068,0.9523809552192688,0.997732400894165,0.9047619047619048,2.0,1.0,200.0,3.0
2.0,0.5742436051368713,0.7555555701255798,0.8543210029602051,0.6980451345443726,0.5,0.5010330677032471,0.6956521739130435,3.0,1.0,200.0,3.0
3.0,0.1876404136419296,0.976190447807312,0.9994330406188964,0.2126346826553344,0.9523809552192688,0.997732400894165,0.9523809523809524,4.0,1.0,200.0,3.0
4.0,0.3544300198554992,0.9523809552192688,0.997732400894165,0.5630637407302856,0.6666666865348816,0.8038548827171326,0.4761904761904761,5.0,1.0,200.0,3.0
5.0,0.2502808570861816,1.0,1.0,0.4077755212783813,0.9523809552192688,0.9886621236801147,0.5238095238095238,5.0,1.0,200.0,3.0
6.0,0.2647866904735565,0.976190447807312,0.9994330406188964,0.4629496932029724,0.8571428656578064,0.9183673858642578,0.4285714285714285,6.0,1.0,200.0,3.0
7.0,0.0787550210952758,1.0,1.0,0.1556026041507721,0.9545454382896424,0.989669382572174,0.9565217391304348,7.0,1.0,200.0,3.0
8.0,0.1636245548725128,0.9523809552192688,0.9977324604988098,0.1439990997314453,1.0,1.0,0.8095238095238095,8.0,1.0,200.0,3.0
9.0,0.2650725841522217,0.9523809552192688,0.997732400894165,0.5291048884391785,0.6190476417541504,0.8185940980911255,0.6190476190476191,9.0,1.0,200.0,3.0
10.0,0.18732118606567383,0.976190447807312,0.9960317611694336,0.14504699409008026,1.0,1.0,1.0,10.0,1.0,200.0,3.0
